{
  "elements": {
    "range": {
      "id": "range",
      "type": "range",
      "value": "78",
      "style": {
        "position": "absolute",
        "left": "200px",
        "top": "600px",
        "width": "100px",
        "height": "20px"
      }
    },
    "number": {
      "id": "number",
      "type": "number",
      "value": "0",
      "style": {
        "position": "absolute",
        "left": "800px",
        "top": "600px",
        "width": "60px",
        "height": "30px"
      }
    },
    "button": {
      "id": "button",
      "type": "button",
      "value": "button",
      "dragFlag": true,
      "style": {
        "position": "absolute",
        "left": "489px",
        "top": "274px",
        "width": "80px",
        "height": "60px"
      }
    }
  },
  "particleSystems": {
    "range": {
      "id": "range",
      "lastTime": 0,
      "emitArea": {
        "emitShapesArray": [
          {
            "line": {
              "x1": 200,
              "y1": 610,
              "x2": 300,
              "y2": 610
            }
          }
        ],
        "index": 0
      },
      "displayEmitArea": true,
      "spawnShape": -2,
      "spawnSide": -2,
      "lifeTime": {
        "min": 500,
        "max": 2000
      },
      "relativeEmitDirection": "none",
      "spawnerComponent": {
        "maxTank": 0,
        "maxAlive": 300,
        "spawnRate": 20,
        "spawnDelay": 300,
        "tank": 0,
        "lastTime": 1567177955388
      },
      "componentInitializers": {
        "colorComponent": {
          "color": {
            "min": [
              30.00000000000012,
              0,
              255,
              1
            ],
            "max": [
              0,
              209.99999999999994,
              255,
              0.7000000000000001
            ]
          },
          "start": {
            "min": [
              0,
              0,
              0,
              1
            ],
            "max": [
              0,
              0,
              0,
              1
            ]
          },
          "end": {
            "min": [
              0,
              0,
              0,
              1
            ],
            "max": [
              0,
              0,
              0,
              1
            ]
          },
          "source": {
            "min": [
              0,
              0,
              0,
              1
            ],
            "max": [
              0,
              0,
              0,
              1
            ]
          },
          "modulation": {
            "min": [
              0,
              0,
              0,
              1
            ],
            "max": [
              0,
              0,
              0,
              1
            ]
          }
        },
        "splatComponent": {
          "backColor": {
            "min": [
              255,
              255,
              255,
              0
            ],
            "max": [
              255,
              255,
              255,
              0
            ]
          },
          "normRadius": {
            "min": 0.30000000000000004,
            "max": 0.30000000000000004
          }
        },
        "scaleComponent": {
          "scale": {
            "min": 0,
            "max": 0
          },
          "speed": {
            "min": 0,
            "max": 0
          },
          "start": {
            "min": 1,
            "max": 1
          },
          "end": {
            "min": 0,
            "max": 0
          },
          "min": {
            "min": 0,
            "max": 0
          },
          "max": {
            "min": 0,
            "max": 0
          }
        },
        "rotationComponent": {
          "rotation": {
            "min": 0,
            "max": 0
          },
          "speed": {
            "min": 0,
            "max": 0
          },
          "start": {
            "min": 0,
            "max": 0
          },
          "end": {
            "min": 0,
            "max": 0
          },
          "min": {
            "min": 0,
            "max": 0
          },
          "max": {
            "min": 0,
            "max": 0
          }
        },
        "velocityComponent": {
          "speed": {
            "min": 0.1,
            "max": 0.2
          },
          "acceleration": {
            "min": 0,
            "max": 0
          },
          "direction": {
            "min": 4.2,
            "max": 5.2
          },
          "start": {
            "min": 0.1,
            "max": 0.1
          },
          "end": {
            "min": 0.2,
            "max": 0.2
          },
          "min": {
            "min": 0,
            "max": 0
          },
          "max": {
            "min": 0,
            "max": 0
          }
        },
        "ringMotionComponent": {
          "center": {},
          "angle": {
            "min": 0,
            "max": 0
          },
          "angularSpeed": {
            "min": 0,
            "max": 0
          },
          "angularAcceleration": {
            "min": 0,
            "max": 0
          },
          "ringRadius": {
            "min": 0,
            "max": 0
          },
          "ringSpeed": {
            "min": 0,
            "max": 0
          }
        },
        "waveMotionComponent": {
          "pos": {
            "min": 0,
            "max": 0
          },
          "center": {},
          "amplitude": {
            "min": 0,
            "max": 0
          },
          "amplitudeSpeed": {
            "min": 0,
            "max": 0
          },
          "angle": {
            "min": 0,
            "max": 0
          },
          "frequency": {
            "min": 0,
            "max": 0
          },
          "frequencySpeed": {
            "min": 0,
            "max": 0
          },
          "rotation": {
            "min": 0,
            "max": 0
          },
          "rotationSpeed": {
            "min": 0,
            "max": 0
          }
        },
        "circleComponent": {
          "radius": {
            "min": 5,
            "max": 6
          }
        },
        "rectangleComponent": {
          "width": {
            "min": 0,
            "max": 0
          },
          "height": {
            "min": 0,
            "max": 0
          }
        }
      },
      "systems": {
        "scaleProgresser": false,
        "rotationProgresser": false,
        "colorByLifeTimeProgresser": false,
        "colorBySpeedProgresser": false,
        "colorModulationByLifeTimeProgresser": false,
        "scaleByLifeTimeProgresser": true,
        "scaleBySpeedProgresser": false,
        "rotationByLifeTimeProgresser": false,
        "rotationBySpeedProgresser": false,
        "linearMotionProgresser": true,
        "ringMotionProgresser": false,
        "waveMotionProgresser": false,
        "colorRenderer": false,
        "splatRenderer": true,
        "scaleRenderer": true,
        "rotationRenderer": false,
        "circleRenderer": true,
        "rectangleRenderer": false
      }
    },
    "number": {
      "id": "number",
      "lastTime": 0,
      "emitArea": {
        "emitShapesArray": [
          {
            "rect": {
              "x1": 800,
              "y1": 600,
              "x2": 864,
              "y2": 634
            },
            "edgeEmit": true,
            "sides": [
              {
                "line": {
                  "x1": 800,
                  "y1": 600,
                  "x2": 864,
                  "y2": 600
                }
              },
              {
                "line": {
                  "x1": 864,
                  "y1": 600,
                  "x2": 864,
                  "y2": 634
                }
              },
              {
                "line": {
                  "x1": 864,
                  "y1": 634,
                  "x2": 800,
                  "y2": 634
                }
              },
              {
                "line": {
                  "x1": 800,
                  "y1": 634,
                  "x2": 800,
                  "y2": 600
                }
              }
            ],
            "index": 0
          }
        ],
        "index": 0
      },
      "displayEmitArea": true,
      "spawnShape": 0,
      "spawnSide": 3,
      "lifeTime": {
        "min": 500,
        "max": 800
      },
      "relativeEmitDirection": "centerout",
      "spawnerComponent": {
        "maxTank": 0,
        "maxAlive": 100,
        "spawnRate": 10,
        "spawnDelay": 400,
        "tank": 0,
        "lastTime": 1567177955506
      },
      "componentInitializers": {
        "colorComponent": {
          "color": {
            "min": [
              0,
              0,
              0,
              1
            ],
            "max": [
              0,
              0,
              0,
              1
            ]
          },
          "start": {
            "min": [
              105,
              105,
              105,
              1
            ],
            "max": [
              120,
              116.47058823529412,
              116.47058823529412,
              1
            ]
          },
          "end": {
            "min": [
              37.404844290657486,
              27.058823529411768,
              114.99999999999999,
              0
            ],
            "max": [
              38.431372549019606,
              43.37658592848906,
              122.49999999999999,
              0
            ]
          },
          "source": {
            "min": [
              0,
              0,
              0,
              1
            ],
            "max": [
              0,
              0,
              0,
              1
            ]
          },
          "modulation": {
            "min": [
              0,
              0,
              0,
              1
            ],
            "max": [
              0,
              0,
              0,
              1
            ]
          }
        },
        "splatComponent": {
          "backColor": {
            "min": [
              255,
              255,
              255,
              0
            ],
            "max": [
              255,
              255,
              255,
              0
            ]
          },
          "normRadius": {
            "min": 0.4,
            "max": 0.4
          }
        },
        "scaleComponent": {
          "scale": {
            "min": 1,
            "max": 1
          },
          "speed": {
            "min": 0,
            "max": 0
          },
          "start": {
            "min": 1,
            "max": 1
          },
          "end": {
            "min": 0,
            "max": 0
          },
          "min": {
            "min": 0,
            "max": 0
          },
          "max": {
            "min": 0,
            "max": 0
          }
        },
        "rotationComponent": {
          "rotation": {
            "min": 0,
            "max": 0
          },
          "speed": {
            "min": 0,
            "max": 0
          },
          "start": {
            "min": 0,
            "max": 0
          },
          "end": {
            "min": 3.14,
            "max": 3.14
          },
          "min": {
            "min": 0,
            "max": 0
          },
          "max": {
            "min": 0,
            "max": 0
          }
        },
        "velocityComponent": {
          "speed": {
            "min": 0.1,
            "max": 0.3
          },
          "acceleration": {
            "min": 0,
            "max": 0
          },
          "direction": {
            "min": 1.2707963267948965,
            "max": 1.8707963267948966
          },
          "start": {
            "min": 0.1,
            "max": 0.1
          },
          "end": {
            "min": 0.3,
            "max": 0.3
          },
          "min": {
            "min": 0,
            "max": 0
          },
          "max": {
            "min": 0,
            "max": 0
          }
        },
        "ringMotionComponent": {
          "center": {},
          "angle": {
            "min": 0,
            "max": 0
          },
          "angularSpeed": {
            "min": 0,
            "max": 0
          },
          "angularAcceleration": {
            "min": 0,
            "max": 0
          },
          "ringRadius": {
            "min": 0,
            "max": 0
          },
          "ringSpeed": {
            "min": 0,
            "max": 0
          }
        },
        "waveMotionComponent": {
          "pos": {
            "min": 0,
            "max": 0
          },
          "center": {},
          "amplitude": {
            "min": 0,
            "max": 0
          },
          "amplitudeSpeed": {
            "min": 0,
            "max": 0
          },
          "angle": {
            "min": 0,
            "max": 0
          },
          "frequency": {
            "min": 0,
            "max": 0
          },
          "frequencySpeed": {
            "min": 0,
            "max": 0
          },
          "rotation": {
            "min": 0,
            "max": 0
          },
          "rotationSpeed": {
            "min": 0,
            "max": 0
          }
        },
        "circleComponent": {
          "radius": {
            "min": 8,
            "max": 8
          }
        },
        "rectangleComponent": {
          "width": {
            "min": 6,
            "max": 10
          },
          "height": {
            "min": 6,
            "max": 10
          }
        }
      },
      "systems": {
        "scaleProgresser": false,
        "rotationProgresser": false,
        "colorByLifeTimeProgresser": true,
        "colorBySpeedProgresser": false,
        "colorModulationByLifeTimeProgresser": false,
        "scaleByLifeTimeProgresser": false,
        "scaleBySpeedProgresser": false,
        "rotationByLifeTimeProgresser": true,
        "rotationBySpeedProgresser": false,
        "linearMotionProgresser": true,
        "ringMotionProgresser": false,
        "waveMotionProgresser": false,
        "colorRenderer": true,
        "splatRenderer": false,
        "scaleRenderer": false,
        "rotationRenderer": true,
        "circleRenderer": false,
        "rectangleRenderer": true
      }
    },
    "button": {
      "id": "button",
      "lastTime": 0,
      "emitArea": {
        "emitShapesArray": [
          {
            "rect": {
              "x1": 489,
              "y1": 274,
              "x2": 569,
              "y2": 334
            },
            "edgeEmit": true,
            "sides": [
              {
                "line": {
                  "x1": 489,
                  "y1": 274,
                  "x2": 569,
                  "y2": 274
                }
              },
              {
                "line": {
                  "x1": 569,
                  "y1": 274,
                  "x2": 569,
                  "y2": 334
                }
              },
              {
                "line": {
                  "x1": 569,
                  "y1": 334,
                  "x2": 489,
                  "y2": 334
                }
              },
              {
                "line": {
                  "x1": 489,
                  "y1": 334,
                  "x2": 489,
                  "y2": 274
                }
              }
            ],
            "index": 0
          }
        ],
        "index": 0
      },
      "displayEmitArea": true,
      "spawnShape": 0,
      "spawnSide": -1,
      "lifeTime": {
        "min": 200,
        "max": 1000
      },
      "relativeEmitDirection": "none",
      "spawnerComponent": {
        "maxTank": 0,
        "maxAlive": 100,
        "spawnRate": 20,
        "spawnDelay": -1,
        "tank": 0,
        "lastTime": 1567177952359
      },
      "componentInitializers": {
        "colorComponent": {
          "color": {
            "min": [
              0,
              0,
              0,
              1
            ],
            "max": [
              0,
              0,
              0,
              1
            ]
          },
          "start": {
            "min": [
              0,
              255,
              1.1324274851176597e-13,
              1
            ],
            "max": [
              0,
              255,
              195.0000000000001,
              1
            ]
          },
          "end": {
            "min": [
              255,
              0,
              0,
              1
            ],
            "max": [
              255,
              164.99999999999991,
              0,
              1
            ]
          },
          "source": {
            "min": [
              0,
              0,
              0,
              1
            ],
            "max": [
              0,
              0,
              0,
              1
            ]
          },
          "modulation": {
            "min": [
              0,
              0,
              0,
              1
            ],
            "max": [
              0,
              0,
              0,
              1
            ]
          }
        },
        "splatComponent": {
          "backColor": {
            "min": [
              255,
              255,
              255,
              0
            ],
            "max": [
              255,
              255,
              255,
              0
            ]
          },
          "normRadius": {
            "min": 0.4,
            "max": 0.4
          }
        },
        "scaleComponent": {
          "scale": {
            "min": 0,
            "max": 0
          },
          "speed": {
            "min": 0,
            "max": 0
          },
          "start": {
            "min": 1,
            "max": 1
          },
          "end": {
            "min": 0,
            "max": 0
          },
          "min": {
            "min": 0,
            "max": 0
          },
          "max": {
            "min": 0,
            "max": 0
          }
        },
        "rotationComponent": {
          "rotation": {
            "min": 0,
            "max": 0
          },
          "speed": {
            "min": 0,
            "max": 0
          },
          "start": {
            "min": 0,
            "max": 0
          },
          "end": {
            "min": 0,
            "max": 0
          },
          "min": {
            "min": 0,
            "max": 0
          },
          "max": {
            "min": 0,
            "max": 0
          }
        },
        "velocityComponent": {
          "speed": {
            "min": 0.2,
            "max": 0.5
          },
          "acceleration": {
            "min": 0,
            "max": 0
          },
          "direction": {
            "min": 1,
            "max": 2
          },
          "start": {
            "min": 0.1,
            "max": 0.2
          },
          "end": {
            "min": 0.5,
            "max": 0.5
          },
          "min": {
            "min": 0,
            "max": 0
          },
          "max": {
            "min": 0,
            "max": 0
          }
        },
        "ringMotionComponent": {
          "center": {},
          "angle": {
            "min": 0,
            "max": 0
          },
          "angularSpeed": {
            "min": 0,
            "max": 0
          },
          "angularAcceleration": {
            "min": 0,
            "max": 0
          },
          "ringRadius": {
            "min": 0,
            "max": 0
          },
          "ringSpeed": {
            "min": 0,
            "max": 0
          }
        },
        "waveMotionComponent": {
          "pos": {
            "min": 0,
            "max": 0
          },
          "center": {},
          "amplitude": {
            "min": 0,
            "max": 0
          },
          "amplitudeSpeed": {
            "min": 0,
            "max": 0
          },
          "angle": {
            "min": 0,
            "max": 0
          },
          "frequency": {
            "min": 0,
            "max": 0
          },
          "frequencySpeed": {
            "min": 0,
            "max": 0
          },
          "rotation": {
            "min": 0,
            "max": 0
          },
          "rotationSpeed": {
            "min": 0,
            "max": 0
          }
        },
        "circleComponent": {
          "radius": {
            "min": 8,
            "max": 8
          }
        },
        "rectangleComponent": {
          "width": {
            "min": 0,
            "max": 0
          },
          "height": {
            "min": 0,
            "max": 0
          }
        }
      },
      "systems": {
        "scaleProgresser": false,
        "rotationProgresser": false,
        "colorByLifeTimeProgresser": false,
        "colorBySpeedProgresser": true,
        "colorModulationByLifeTimeProgresser": false,
        "scaleByLifeTimeProgresser": true,
        "scaleBySpeedProgresser": false,
        "rotationByLifeTimeProgresser": false,
        "rotationBySpeedProgresser": false,
        "linearMotionProgresser": true,
        "ringMotionProgresser": false,
        "waveMotionProgresser": false,
        "colorRenderer": false,
        "splatRenderer": true,
        "scaleRenderer": true,
        "rotationRenderer": false,
        "circleRenderer": true,
        "rectangleRenderer": false
      }
    }
  }
}